…
``` r
## first call the data set that will be used 
vancouver_trees %>%
## next call the distinct function and input the variable from the dataset you wish to know the count for 
  distinct(neighbourhood_name)
```

    ## # A tibble: 22 × 1
    ##    neighbourhood_name      
    ##    <chr>                   
    ##  1 MARPOLE                 
    ##  2 KENSINGTON-CEDAR COTTAGE
    ##  3 OAKRIDGE                
    ##  4 MOUNT PLEASANT          
    ##  5 RENFREW-COLLINGWOOD     
    ##  6 RILEY PARK              
    ##  7 DOWNTOWN                
    ##  8 SUNSET                  
    ##  9 ARBUTUS-RIDGE           
    ## 10 GRANDVIEW-WOODLAND      
    ## # … with 12 more rows
…
