…
``` r
## Filtering the data using the dplyr filter function 
## create a variable that holds a subset of the data and give it a descriptive name
ulmusGenus <- vancouver_trees %>%
## filter the data so only trees with the genus name ULMUS remain
  filter(genus_name == "ULMUS")
## visualize your new subsetted dataset
print(ulmusGenus)
```

    ## # A tibble: 2,861 × 20
    ##    tree_id civic_number std_street  genus_name species_name cultivar_name
    ##      <dbl>        <dbl> <chr>       <chr>      <chr>        <chr>        
    ##  1  149556          494 W 58TH AV   ULMUS      AMERICANA    BRANDON      
    ##  2  155413         2485 W BROADWAY  ULMUS      AMERICANA    BRANDON      
    ##  3  157229         1846 VENABLES ST ULMUS      AMERICANA    <NA>         
    ##  4  157448         2555 ARBUTUS ST  ULMUS      GLABRA       <NA>         
    ##  5  157449         2555 ARBUTUS ST  ULMUS      GLABRA       <NA>         
    ##  6  157494         3448 W 28TH AV   ULMUS      GLABRA       <NA>         
    ##  7  159619         2715 W 38TH AV   ULMUS      AMERICANA    <NA>         
    ##  8  159863          889 KEEFER ST   ULMUS      GLABRA       <NA>         
    ##  9  159939         3985 HUDSON ST   ULMUS      AMERICANA    BRANDON      
    ## 10  161308         3477 W 28TH AV   ULMUS      AMERICANA    BRANDON      
    ## # … with 2,851 more rows, and 14 more variables: common_name <chr>,
    ## #   assigned <chr>, root_barrier <chr>, plant_area <chr>,
    ## #   on_street_block <dbl>, on_street <chr>, neighbourhood_name <chr>,
    ## #   street_side_name <chr>, height_range_id <dbl>, diameter <dbl>, curb <chr>,
    ## #   date_planted <date>, longitude <dbl>, latitude <dbl>
…
``` r
## use the dplyr function mutate to create a new variable called species_diameter_mean in the
## *vancouver_trees* dataset
## call the dataset
vancouver_trees %>%
## group by species_name to group together the species in the dataset 
  group_by(species_name) %>%
## use mutate to add the new variable species_diameter_mean by calculating the mean diameter of the trees  ## within each species and assigning the output to the new specified variable. This works because mutate   ## honors the group function.
  mutate(species_diameter_mean = mean(diameter))
```

    ## # A tibble: 146,611 × 21
    ## # Groups:   species_name [283]
    ##    tree_id civic_number std_street    genus_name species_name cultivar_name  
    ##      <dbl>        <dbl> <chr>         <chr>      <chr>        <chr>          
    ##  1  149556          494 W 58TH AV     ULMUS      AMERICANA    BRANDON        
    ##  2  149563          450 W 58TH AV     ZELKOVA    SERRATA      <NA>           
    ##  3  149579         4994 WINDSOR ST    STYRAX     JAPONICA     <NA>           
    ##  4  149590          858 E 39TH AV     FRAXINUS   AMERICANA    AUTUMN APPLAUSE
    ##  5  149604         5032 WINDSOR ST    ACER       CAMPESTRE    <NA>           
    ##  6  149616          585 W 61ST AV     PYRUS      CALLERYANA   CHANTICLEER    
    ##  7  149617         4909 SHERBROOKE ST ACER       PLATANOIDES  COLUMNARE      
    ##  8  149618         4925 SHERBROOKE ST ACER       PLATANOIDES  COLUMNARE      
    ##  9  149619         4969 SHERBROOKE ST ACER       PLATANOIDES  COLUMNARE      
    ## 10  149625          720 E 39TH AV     FRAXINUS   AMERICANA    AUTUMN APPLAUSE
    ## # … with 146,601 more rows, and 15 more variables: common_name <chr>,
    ## #   assigned <chr>, root_barrier <chr>, plant_area <chr>,
    ## #   on_street_block <dbl>, on_street <chr>, neighbourhood_name <chr>,
    ## #   street_side_name <chr>, height_range_id <dbl>, diameter <dbl>, curb <chr>,
    ## #   date_planted <date>, longitude <dbl>, latitude <dbl>,
    ## #   species_diameter_mean <dbl>

``` r
## use the dplyr function mutate to create a new variable called genus_diameter_mean in the
## *vancouver_trees* dataset
## call the dataset
vancouver_trees %>%
## group by genus_name to group together the genus' in the dataset 
  group_by(genus_name) %>%
## use mutate to add the new variable genus_diameter_mean by calculating the mean diameter of the trees  ## within each genus and assigning the output to the new specified variable. This works because mutate   ## honors the group function.
  mutate(genus_diameter_mean = mean(diameter))
```

    ## # A tibble: 146,611 × 21
    ## # Groups:   genus_name [97]
    ##    tree_id civic_number std_street    genus_name species_name cultivar_name  
    ##      <dbl>        <dbl> <chr>         <chr>      <chr>        <chr>          
    ##  1  149556          494 W 58TH AV     ULMUS      AMERICANA    BRANDON        
    ##  2  149563          450 W 58TH AV     ZELKOVA    SERRATA      <NA>           
    ##  3  149579         4994 WINDSOR ST    STYRAX     JAPONICA     <NA>           
    ##  4  149590          858 E 39TH AV     FRAXINUS   AMERICANA    AUTUMN APPLAUSE
    ##  5  149604         5032 WINDSOR ST    ACER       CAMPESTRE    <NA>           
    ##  6  149616          585 W 61ST AV     PYRUS      CALLERYANA   CHANTICLEER    
    ##  7  149617         4909 SHERBROOKE ST ACER       PLATANOIDES  COLUMNARE      
    ##  8  149618         4925 SHERBROOKE ST ACER       PLATANOIDES  COLUMNARE      
    ##  9  149619         4969 SHERBROOKE ST ACER       PLATANOIDES  COLUMNARE      
    ## 10  149625          720 E 39TH AV     FRAXINUS   AMERICANA    AUTUMN APPLAUSE
    ## # … with 146,601 more rows, and 15 more variables: common_name <chr>,
    ## #   assigned <chr>, root_barrier <chr>, plant_area <chr>,
    ## #   on_street_block <dbl>, on_street <chr>, neighbourhood_name <chr>,
    ## #   street_side_name <chr>, height_range_id <dbl>, diameter <dbl>, curb <chr>,
    ## #   date_planted <date>, longitude <dbl>, latitude <dbl>,
    ## #   genus_diameter_mean <dbl>
…
